{
  "tropo": [
    {
      "say": {
        "value": "you are now being transfered"
      }
    },
    {
      "transfer": {
        "to": "sip:hellen@sip2sip.info",
        "ringRepeat": 2,
        "on": [
          {
            "event": "ring",
            "say": {
              "value": "https://www.tropo.com/static/audio/tropo-rocks.mp3"
            }
          },
          {
            "event": "connect",
            "ask": {
              "attempts": 3,
              "say": [
                {
                  "value": "Sorry. Please enter you 5 digit account number again.",
                  "event": "nomatch"
                },
                {
                  "value": "Sorry, I did not hear anything.",
                  "event": "timeout"
                },
                {
                  "value": "Please enter 5 digit account number"
                }
              ],
              "required": true,
              "bargein": true,
              "timeout": 10,
              "name": "foo",
              "choices": {
                "value": "[5 DIGITS]",
                "mode": "dtmf"
              }
            }
          }
        ]
      }
    }
  ]
}
